test.vcd
$date
	Sat Dec  5 20:54:45 2020
$end
$version
	Icarus Verilog
$end
$timescale
	1ps
$end
$scope module tb_top $end
$var wire 1 ! clock $end
$var wire 1 " RESET $end
$var wire 1 # RCO $end
$var wire 32 $ Q [31:0] $end
$var wire 2 % MODO [1:0] $end
$var wire 8 & LOAD [7:0] $end
$var wire 1 ' ENABLE $end
$var wire 32 ( D [31:0] $end
$scope module Behav $end
$var wire 32 ) wQ [31:0] $end
$var wire 8 * wLOAD [7:0] $end
$var wire 1 ! clk $end
$var wire 8 + WnRCO [7:0] $end
$var wire 1 " RESET $end
$var wire 2 , MODO [1:0] $end
$var wire 1 ' ENABLE $end
$var wire 32 - D [31:0] $end
$var reg 32 . D_reg [31:0] $end
$var reg 8 / LOAD [7:0] $end
$var reg 32 0 Q [31:0] $end
$var reg 1 # RCO $end
$var reg 8 1 nRCO [7:0] $end
$var integer 32 2 x [31:0] $end
$var integer 32 3 y [31:0] $end
$scope module cont4b_0 $end
$var wire 4 4 D [3:0] $end
$var wire 1 ! clk $end
$var wire 1 " RESET $end
$var wire 2 5 MODO [1:0] $end
$var wire 1 ' ENABLE $end
$var reg 1 6 LOAD $end
$var reg 2 7 MODO_reg [1:0] $end
$var reg 4 8 Q [3:0] $end
$var reg 1 9 RCO $end
$upscope $end
$scope module cont4b_1 $end
$var wire 4 : D [3:0] $end
$var wire 2 ; MODO [1:0] $end
$var wire 1 ! clk $end
$var wire 1 " RESET $end
$var wire 1 ' ENABLE $end
$var reg 1 < LOAD $end
$var reg 2 = MODO_reg [1:0] $end
$var reg 4 > Q [3:0] $end
$var reg 1 ? RCO $end
$upscope $end
$scope module cont4b_2 $end
$var wire 4 @ D [3:0] $end
$var wire 2 A MODO [1:0] $end
$var wire 1 ! clk $end
$var wire 1 " RESET $end
$var wire 1 ' ENABLE $end
$var reg 1 B LOAD $end
$var reg 2 C MODO_reg [1:0] $end
$var reg 4 D Q [3:0] $end
$var reg 1 E RCO $end
$upscope $end
$scope module cont4b_3 $end
$var wire 4 F D [3:0] $end
$var wire 2 G MODO [1:0] $end
$var wire 1 ! clk $end
$var wire 1 " RESET $end
$var wire 1 ' ENABLE $end
$var reg 1 H LOAD $end
$var reg 2 I MODO_reg [1:0] $end
$var reg 4 J Q [3:0] $end
$var reg 1 K RCO $end
$upscope $end
$scope module cont4b_4 $end
$var wire 4 L D [3:0] $end
$var wire 2 M MODO [1:0] $end
$var wire 1 ! clk $end
$var wire 1 " RESET $end
$var wire 1 ' ENABLE $end
$var reg 1 N LOAD $end
$var reg 2 O MODO_reg [1:0] $end
$var reg 4 P Q [3:0] $end
$var reg 1 Q RCO $end
$upscope $end
$scope module cont4b_5 $end
$var wire 4 R D [3:0] $end
$var wire 2 S MODO [1:0] $end
$var wire 1 ! clk $end
$var wire 1 " RESET $end
$var wire 1 ' ENABLE $end
$var reg 1 T LOAD $end
$var reg 2 U MODO_reg [1:0] $end
$var reg 4 V Q [3:0] $end
$var reg 1 W RCO $end
$upscope $end
$scope module cont4b_6 $end
$var wire 4 X D [3:0] $end
$var wire 2 Y MODO [1:0] $end
$var wire 1 ! clk $end
$var wire 1 " RESET $end
$var wire 1 ' ENABLE $end
$var reg 1 Z LOAD $end
$var reg 2 [ MODO_reg [1:0] $end
$var reg 4 \ Q [3:0] $end
$var reg 1 ] RCO $end
$upscope $end
$scope module cont4b_7 $end
$var wire 4 ^ D [3:0] $end
$var wire 2 _ MODO [1:0] $end
$var wire 1 ! clk $end
$var wire 1 " RESET $end
$var wire 1 ' ENABLE $end
$var reg 1 ` LOAD $end
$var reg 2 a MODO_reg [1:0] $end
$var reg 4 b Q [3:0] $end
$var reg 1 c RCO $end
$upscope $end
$upscope $end
$scope module clock $end
$var reg 1 ! clock $end
$upscope $end
$scope module tb $end
$var wire 8 d LOAD [7:0] $end
$var wire 32 e Q [31:0] $end
$var wire 1 # RCO $end
$var wire 1 ! clk $end
$var wire 1 f wRCO $end
$var wire 32 g wQ [31:0] $end
$var wire 8 h wLOAD [7:0] $end
$var reg 32 i D [31:0] $end
$var reg 1 ' ENABLE $end
$var reg 2 j MODO [1:0] $end
$var reg 1 " RESET $end
$var integer 32 k log [31:0] $end
$scope module count_TB $end
$var wire 32 l D [31:0] $end
$var wire 1 ' ENABLE $end
$var wire 2 m MODO [1:0] $end
$var wire 1 " RESET $end
$var wire 1 ! clk $end
$var wire 32 n wQ [31:0] $end
$var wire 8 o wLOAD [7:0] $end
$var wire 8 p WnRCO [7:0] $end
$var reg 32 q D_reg [31:0] $end
$var reg 8 r LOAD [7:0] $end
$var reg 32 s Q [31:0] $end
$var reg 1 f RCO $end
$var reg 8 t nRCO [7:0] $end
$var integer 32 u x [31:0] $end
$var integer 32 v y [31:0] $end
$scope module cont4b_0 $end
$var wire 4 w D [3:0] $end
$var wire 1 ' ENABLE $end
$var wire 2 x MODO [1:0] $end
$var wire 1 " RESET $end
$var wire 1 ! clk $end
$var reg 1 y LOAD $end
$var reg 2 z MODO_reg [1:0] $end
$var reg 4 { Q [3:0] $end
$var reg 1 | RCO $end
$upscope $end
$scope module cont4b_1 $end
$var wire 4 } D [3:0] $end
$var wire 1 ' ENABLE $end
$var wire 2 ~ MODO [1:0] $end
$var wire 1 " RESET $end
$var wire 1 ! clk $end
$var reg 1 !" LOAD $end
$var reg 2 "" MODO_reg [1:0] $end
$var reg 4 #" Q [3:0] $end
$var reg 1 $" RCO $end
$upscope $end
$scope module cont4b_2 $end
$var wire 4 %" D [3:0] $end
$var wire 1 ' ENABLE $end
$var wire 2 &" MODO [1:0] $end
$var wire 1 " RESET $end
$var wire 1 ! clk $end
$var reg 1 '" LOAD $end
$var reg 2 (" MODO_reg [1:0] $end
$var reg 4 )" Q [3:0] $end
$var reg 1 *" RCO $end
$upscope $end
$scope module cont4b_3 $end
$var wire 4 +" D [3:0] $end
$var wire 1 ' ENABLE $end
$var wire 2 ," MODO [1:0] $end
$var wire 1 " RESET $end
$var wire 1 ! clk $end
$var reg 1 -" LOAD $end
$var reg 2 ." MODO_reg [1:0] $end
$var reg 4 /" Q [3:0] $end
$var reg 1 0" RCO $end
$upscope $end
$scope module cont4b_4 $end
$var wire 4 1" D [3:0] $end
$var wire 1 ' ENABLE $end
$var wire 2 2" MODO [1:0] $end
$var wire 1 " RESET $end
$var wire 1 ! clk $end
$var reg 1 3" LOAD $end
$var reg 2 4" MODO_reg [1:0] $end
$var reg 4 5" Q [3:0] $end
$var reg 1 6" RCO $end
$upscope $end
$scope module cont4b_5 $end
$var wire 4 7" D [3:0] $end
$var wire 1 ' ENABLE $end
$var wire 2 8" MODO [1:0] $end
$var wire 1 " RESET $end
$var wire 1 ! clk $end
$var reg 1 9" LOAD $end
$var reg 2 :" MODO_reg [1:0] $end
$var reg 4 ;" Q [3:0] $end
$var reg 1 <" RCO $end
$upscope $end
$scope module cont4b_6 $end
$var wire 4 =" D [3:0] $end
$var wire 1 ' ENABLE $end
$var wire 2 >" MODO [1:0] $end
$var wire 1 " RESET $end
$var wire 1 ! clk $end
$var reg 1 ?" LOAD $end
$var reg 2 @" MODO_reg [1:0] $end
$var reg 4 A" Q [3:0] $end
$var reg 1 B" RCO $end
$upscope $end
$scope module cont4b_7 $end
$var wire 4 C" D [3:0] $end
$var wire 1 ' ENABLE $end
$var wire 2 D" MODO [1:0] $end
$var wire 1 " RESET $end
$var wire 1 ! clk $end
$var reg 1 E" LOAD $end
$var reg 2 F" MODO_reg [1:0] $end
$var reg 4 G" Q [3:0] $end
$var reg 1 H" RCO $end
$upscope $end
$upscope $end
$scope task drv_MODO00_request $end
$var integer 32 I" iteration [31:0] $end
$upscope $end
$scope task drv_MODO01_request $end
$var integer 32 J" iteration [31:0] $end
$upscope $end
$scope task drv_MODO10_request $end
$var integer 32 K" iteration [31:0] $end
$upscope $end
$scope task drv_MODO_request $end
$var integer 32 L" iteration [31:0] $end
$upscope $end
$scope task drv_RESET2_request $end
$var integer 32 M" iteration [31:0] $end
$upscope $end
$scope task drv_RESET_request $end
$var integer 32 N" iteration [31:0] $end
$upscope $end
$scope task drv_init $end
$upscope $end
$scope task drv_random_request $end
$var integer 32 O" iteration [31:0] $end
$upscope $end
$upscope $end
$upscope $end
$enddefinitions $end
#0
$dumpvars
bx O"
bx N"
bx M"
bx L"
bx K"
bx J"
bx I"
xH"
bx G"
bx F"
xE"
bx D"
bx C"
xB"
bx A"
bx @"
x?"
bx >"
bx ="
x<"
bx ;"
bx :"
x9"
bx 8"
bx 7"
x6"
bx 5"
bx 4"
x3"
bx 2"
bx 1"
x0"
bx /"
bx ."
x-"
bx ,"
bx +"
x*"
bx )"
bx ("
x'"
bx &"
bx %"
x$"
bx #"
bx ""
x!"
bx ~
bx }
x|
bx {
bx z
xy
bx x
bx w
bx v
bx u
bx t
bx s
bx r
bx q
bx p
bx o
bx n
bx m
bx l
b10 k
bx j
bx i
bx h
bx g
xf
bx e
bx d
xc
bx b
bx a
x`
bx _
bx ^
x]
bx \
bx [
xZ
bx Y
bx X
xW
bx V
bx U
xT
bx S
bx R
xQ
bx P
bx O
xN
bx M
bx L
xK
bx J
bx I
xH
bx G
bx F
xE
bx D
bx C
xB
bx A
bx @
x?
bx >
bx =
x<
bx ;
bx :
x9
bx 8
bx 7
x6
bx 5
bx 4
bx 3
bx 2
bx 1
bx 0
bx /
bx .
bx -
bx ,
bx +
bx *
bx )
bx (
0'
bx &
bx %
bx $
x#
x"
0!
$end
#100000
b0 t
b0 h
b0 r
b0 g
b0 s
b0 1
b0 &
b0 /
b0 d
b0 $
b0 0
b0 e
0y
0|
b0 {
0!"
0$"
b0 #"
0'"
0*"
b0 )"
0-"
00"
b0 /"
03"
06"
b0 5"
09"
0<"
b0 ;"
0?"
0B"
b0 A"
b0 o
0E"
b0 p
0H"
b0 n
b0 G"
06
09
b0 8
0<
0?
b0 >
0B
0E
b0 D
0H
0K
b0 J
0N
0Q
b0 P
0T
0W
b0 V
0Z
0]
b0 \
b0 *
0`
b0 +
0c
b0 )
b0 b
1!
#200000
b11 F"
b11 @"
b11 :"
b11 4"
b11 ."
b11 ("
b11 ""
b0 w
b0 }
b0 %"
b0 +"
b0 1"
b0 7"
b0 ="
b0 C"
b11 a
b11 [
b11 U
b11 O
b11 I
b11 C
b11 =
b0 4
b0 :
b0 @
b0 F
b0 L
b0 R
b0 X
b0 ^
b11 D"
b11 >"
b11 8"
b11 2"
b11 ,"
b11 &"
b11 ~
b0 q
1"
b11 _
b11 Y
b11 S
b11 M
b11 G
b11 A
b11 ;
b0 .
0!
#300000
bx 4
bx :
bx @
bx F
bx L
bx R
bx X
bx ^
bx w
bx }
bx %"
bx +"
bx 1"
bx 7"
bx ="
bx C"
bx .
bx q
b1000 3
b1000 2
b1000 v
b1000 u
1!
#400000
b0 4
b0 :
b0 @
b0 F
b0 L
b0 R
b0 X
b0 ^
b0 w
b0 }
b0 %"
b0 +"
b0 1"
b0 7"
b0 ="
b0 C"
b0 .
0"
b0 q
0!
#500000
1!
#600000
0!
#700000
1!
#800000
b0 (
b0 -
b0 i
b0 l
1'
b11 7
b11 z
b11 %
b11 ,
b11 5
b11 j
b11 m
b11 x
b10011100010000 L"
0!
#900000
b11111111 h
b11111111 r
0f
b11111111 &
b11111111 /
b11111111 d
0#
1y
1!"
1'"
1-"
13"
19"
1?"
b11111111 o
1E"
16
1<
1B
1H
1N
1T
1Z
b11111111 *
1`
1!
#1000000
b0 z
b0 7
b0 %
b0 ,
b0 5
b0 j
b0 m
b0 x
0!
#1100000
b11111110 &
b11111110 /
b11111110 d
b1 $
b1 0
b1 e
b11111110 h
b11111110 r
b1 g
b1 s
b11111110 *
06
b1 )
b1 8
b11111110 o
0y
b1 n
b1 {
1!
#1200000
b1 4
b1 w
b1 .
b1 q
0!
#1300000
b10 g
b10 s
b10 $
b10 0
b10 e
b10 n
b10 {
b10 )
b10 8
1!
#1400000
b10 w
b10 4
b10 q
b10 .
0!
#1500000
b11 $
b11 0
b11 e
b11 g
b11 s
b11 )
b11 8
b11 n
b11 {
1!
#1600000
b11 4
b11 w
b11 .
b11 q
0!
#1700000
b100 g
b100 s
b100 $
b100 0
b100 e
b100 n
b100 {
b100 )
b100 8
1!
#1800000
b100 w
b100 4
b100 q
b100 .
0!
#1900000
b101 $
b101 0
b101 e
b101 g
b101 s
b101 )
b101 8
b101 n
b101 {
1!
#2000000
b101 4
b101 w
b101 .
b101 q
0!
#2100000
b110 g
b110 s
b110 $
b110 0
b110 e
b110 n
b110 {
b110 )
b110 8
1!
#2200000
b110 w
b110 4
b110 q
b110 .
0!
#2300000
b111 $
b111 0
b111 e
b111 g
b111 s
b111 )
b111 8
b111 n
b111 {
1!
#2400000
b111 4
b111 w
b111 .
b111 q
0!
#2500000
b1000 g
b1000 s
b1000 $
b1000 0
b1000 e
b1000 n
b1000 {
b1000 )
b1000 8
1!
#2600000
b1000 w
b1000 4
b1000 q
b1000 .
0!
#2700000
b1001 $
b1001 0
b1001 e
b1001 g
b1001 s
b1001 )
b1001 8
b1001 n
b1001 {
1!
#2800000
b1001 4
b1001 w
b1001 .
b1001 q
0!
#2900000
b1010 g
b1010 s
b1010 $
b1010 0
b1010 e
b1010 n
b1010 {
b1010 )
b1010 8
1!
#3000000
b1010 w
b1010 4
b1010 q
b1010 .
0!
#3100000
b1011 $
b1011 0
b1011 e
b1011 g
b1011 s
b1011 )
b1011 8
b1011 n
b1011 {
1!
#3200000
b1011 4
b1011 w
b1011 .
b1011 q
0!
#3300000
b1100 g
b1100 s
b1100 $
b1100 0
b1100 e
b1100 n
b1100 {
b1100 )
b1100 8
1!
#3400000
b1100 w
b1100 4
b1100 q
b1100 .
0!
#3500000
b1101 $
b1101 0
b1101 e
b1101 g
b1101 s
b1101 )
b1101 8
b1101 n
b1101 {
1!
#3600000
b1101 4
b1101 w
b1101 .
b1101 q
0!
#3700000
b1110 g
b1110 s
b1110 $
b1110 0
b1110 e
b1110 n
b1110 {
b1110 )
b1110 8
1!
#3800000
b1110 w
b1110 4
b1110 q
b1110 .
0!
#3900000
b1 1
b1111 $
b1111 0
b1111 e
b1 t
b1111 g
b1111 s
b1111 )
b1111 8
b1 +
19
b1111 n
b1111 {
b1 p
1|
1!
#4000000
b0 1
b0 t
b0 +
09
b0 p
0|
b0 =
b1111 4
b0 ""
b1111 w
b0 ;
b1111 .
b0 ~
b1111 q
0!
#4100000
b11111100 h
b11111100 r
b10000 g
b10000 s
b11111100 &
b11111100 /
b11111100 d
b10000 $
b10000 0
b10000 e
b0 {
b11111100 o
0!"
b10000 n
b1 #"
b0 8
b11111100 *
0<
b10000 )
b1 >
1!
#4200000
b11 ""
b0 w
b1 }
b11 =
b0 4
b1 :
b11 ~
b10000 q
b11 ;
b10000 .
0!
#4300000
b11111110 &
b11111110 /
b11111110 d
b10001 $
b10001 0
b10001 e
b11111110 h
b11111110 r
b10001 g
b10001 s
b11111110 *
1<
b10001 )
b1 8
b11111110 o
1!"
b10001 n
b1 {
1!
#4400000
b1 4
b1 w
b10001 .
b10001 q
0!
#4500000
b10010 g
b10010 s
b10010 $
b10010 0
b10010 e
b10010 n
b10 {
b10010 )
b10 8
1!
#4600000
b10 w
b10 4
b10010 q
b10010 .
0!
#4700000
b10011 $
b10011 0
b10011 e
b10011 g
b10011 s
b10011 )
b11 8
b10011 n
b11 {
1!
#4800000
b11 4
b11 w
b10011 .
b10011 q
0!
#4900000
b10100 g
b10100 s
b10100 $
b10100 0
b10100 e
b10100 n
b100 {
b10100 )
b100 8
1!
#5000000
b100 w
b100 4
b10100 q
b10100 .
0!
#5100000
b10101 $
b10101 0
b10101 e
b10101 g
b10101 s
b10101 )
b101 8
b10101 n
b101 {
1!
#5200000
b101 4
b101 w
b10101 .
b10101 q
0!
#5300000
b10110 g
b10110 s
b10110 $
b10110 0
b10110 e
b10110 n
b110 {
b10110 )
b110 8
1!
#5400000
b110 w
b110 4
b10110 q
b10110 .
0!
#5500000
b10111 $
b10111 0
b10111 e
b10111 g
b10111 s
b10111 )
b111 8
b10111 n
b111 {
1!
#5600000
b111 4
b111 w
b10111 .
b10111 q
0!
#5700000
b11000 g
b11000 s
b11000 $
b11000 0
b11000 e
b11000 n
b1000 {
b11000 )
b1000 8
1!
#5800000
b1000 w
b1000 4
b11000 q
b11000 .
0!
#5900000
b11001 $
b11001 0
b11001 e
b11001 g
b11001 s
b11001 )
b1001 8
b11001 n
b1001 {
1!
#6000000
b1001 4
b1001 w
b11001 .
b11001 q
0!
#6100000
b11010 g
b11010 s
b11010 $
b11010 0
b11010 e
b11010 n
b1010 {
b11010 )
b1010 8
1!
#6200000
b1010 w
b1010 4
b11010 q
b11010 .
0!
#6300000
b11011 $
b11011 0
b11011 e
b11011 g
b11011 s
b11011 )
b1011 8
b11011 n
b1011 {
1!
#6400000
b1011 4
b1011 w
b11011 .
b11011 q
0!
#6500000
b11100 g
b11100 s
b11100 $
b11100 0
b11100 e
b11100 n
b1100 {
b11100 )
b1100 8
1!
#6600000
b1100 w
b1100 4
b11100 q
b11100 .
0!
#6700000
b11101 $
b11101 0
b11101 e
b11101 g
b11101 s
b11101 )
b1101 8
b11101 n
b1101 {
1!
#6800000
b1101 4
b1101 w
b11101 .
b11101 q
0!
#6900000
b11110 g
b11110 s
b11110 $
b11110 0
b11110 e
b11110 n
b1110 {
b11110 )
b1110 8
1!
#7000000
b1110 w
b1110 4
b11110 q
b11110 .
0!
#7100000
b1 1
b11111 $
b11111 0
b11111 e
b1 t
b11111 g
b11111 s
b11111 )
b1111 8
b1 +
19
b11111 n
b1111 {
b1 p
1|
1!
#7200000
b0 1
b0 t
b0 +
09
b0 p
0|
b0 =
b1111 4
b0 ""
b1111 w
b0 ;
b11111 .
b0 ~
b11111 q
0!
#7300000
b11111100 h
b11111100 r
b100000 g
b100000 s
b11111100 &
b11111100 /
b11111100 d
b100000 $
b100000 0
b100000 e
b0 {
b11111100 o
0!"
b100000 n
b10 #"
b0 8
b11111100 *
0<
b100000 )
b10 >
1!
#7400000
b11 ""
b0 w
b10 }
b11 =
b0 4
b10 :
b11 ~
b100000 q
b11 ;
b100000 .
0!
#7500000
b11111110 &
b11111110 /
b11111110 d
b100001 $
b100001 0
b100001 e
b11111110 h
b11111110 r
b100001 g
b100001 s
b11111110 *
1<
b100001 )
b1 8
b11111110 o
1!"
b100001 n
b1 {
1!
#7600000
b1 4
b1 w
b100001 .
b100001 q
0!
#7700000
b100010 g
b100010 s
b100010 $
b100010 0
b100010 e
b100010 n
b10 {
b100010 )
b10 8
1!
#7800000
b10 w
b10 4
b100010 q
b100010 .
0!
#7900000
b100011 $
b100011 0
b100011 e
b100011 g
b100011 s
b100011 )
b11 8
b100011 n
b11 {
1!
#8000000
b11 4
b11 w
b100011 .
b100011 q
0!
#8100000
b100100 g
b100100 s
b100100 $
b100100 0
b100100 e
b100100 n
b100 {
b100100 )
b100 8
1!
#8200000
b100 w
b100 4
b100100 q
b100100 .
0!
#8300000
b100101 $
b100101 0
b100101 e
b100101 g
b100101 s
b100101 )
b101 8
b100101 n
b101 {
1!
#8400000
b101 4
b101 w
b100101 .
b100101 q
0!
#8500000
b100110 g
b100110 s
b100110 $
b100110 0
b100110 e
b100110 n
b110 {
b100110 )
b110 8
1!
#8600000
b110 w
b110 4
b100110 q
b100110 .
0!
#8700000
b100111 $
b100111 0
b100111 e
b100111 g
b100111 s
b100111 )
b111 8
b100111 n
b111 {
1!
#8800000
b111 4
b111 w
b100111 .
b100111 q
0!
#8900000
b101000 g
b101000 s
b101000 $
b101000 0
b101000 e
b101000 n
b1000 {
b101000 )
b1000 8
1!
#9000000
b1000 w
b1000 4
b101000 q
b101000 .
0!
#9100000
b101001 $
b101001 0
b101001 e
b101001 g
b101001 s
b101001 )
b1001 8
b101001 n
b1001 {
1!
#9200000
b1001 4
b1001 w
b101001 .
b101001 q
0!
#9300000
b101010 g
b101010 s
b101010 $
b101010 0
b101010 e
b101010 n
b1010 {
b101010 )
b1010 8
1!
#9400000
b1010 w
b1010 4
b101010 q
b101010 .
0!
#9500000
b101011 $
b101011 0
b101011 e
b101011 g
b101011 s
b101011 )
b1011 8
b101011 n
b1011 {
1!
#9600000
b1011 4
b1011 w
b101011 .
b101011 q
0!
#9700000
b101100 g
b101100 s
b101100 $
b101100 0
b101100 e
b101100 n
b1100 {
b101100 )
b1100 8
1!
#9800000
b1100 w
b1100 4
b101100 q
b101100 .
0!
#9900000
b101101 $
b101101 0
b101101 e
b101101 g
b101101 s
b101101 )
b1101 8
b101101 n
b1101 {
1!
#10000000
b1101 4
b1101 w
b101101 .
b101101 q
0!
#10100000
b101110 g
b101110 s
b101110 $
b101110 0
b101110 e
b101110 n
b1110 {
b101110 )
b1110 8
1!
#10200000
b1110 w
b1110 4
b101110 q
b101110 .
0!
#10300000
b1 1
b101111 $
b101111 0
b101111 e
b1 t
b101111 g
b101111 s
b101111 )
b1111 8
b1 +
19
b101111 n
b1111 {
b1 p
1|
1!
#10400000
b0 1
b0 t
b0 +
09
b0 p
0|
b0 =
b1111 4
b0 ""
b1111 w
b0 ;
b101111 .
b0 ~
b101111 q
0!
#10500000
b11111100 h
b11111100 r
b110000 g
b110000 s
b11111100 &
b11111100 /
b11111100 d
b110000 $
b110000 0
b110000 e
b0 {
b11111100 o
0!"
b110000 n
b11 #"
b0 8
b11111100 *
0<
b110000 )
b11 >
1!
#10600000
b11 ""
b0 w
b11 }
b11 =
b0 4
b11 :
b11 ~
b110000 q
b11 ;
b110000 .
0!
#10700000
b11111110 &
b11111110 /
b11111110 d
b110001 $
b110001 0
b110001 e
b11111110 h
b11111110 r
b110001 g
b110001 s
b11111110 *
1<
b110001 )
b1 8
b11111110 o
1!"
b110001 n
b1 {
1!
#10800000
b1 4
b1 w
b110001 .
b110001 q
0!
#10900000
b110010 g
b110010 s
b110010 $
b110010 0
b110010 e
b110010 n
b10 {
b110010 )
b10 8
1!
#11000000
b10 w
b10 4
b110010 q
b110010 .
0!
#11100000
b110011 $
b110011 0
b110011 e
b110011 g
b110011 s
b110011 )
b11 8
b110011 n
b11 {
1!
#11200000
b11 4
b11 w
b110011 .
b110011 q
0!
#11300000
b110100 g
b110100 s
b110100 $
b110100 0
b110100 e
b110100 n
b100 {
b110100 )
b100 8
1!
#11400000
b100 w
b100 4
b110100 q
b110100 .
0!
#11500000
b110101 $
b110101 0
b110101 e
b110101 g
b110101 s
b110101 )
b101 8
b110101 n
b101 {
1!
#11600000
b101 4
b101 w
b110101 .
b110101 q
0!
#11700000
b110110 g
b110110 s
b110110 $
b110110 0
b110110 e
b110110 n
b110 {
b110110 )
b110 8
1!
#11800000
b110 w
b110 4
b110110 q
b110110 .
0!
#11900000
b110111 $
b110111 0
b110111 e
b110111 g
b110111 s
b110111 )
b111 8
b110111 n
b111 {
1!
#12000000
b111 4
b111 w
b110111 .
b110111 q
0!
#12100000
b111000 g
b111000 s
b111000 $
b111000 0
b111000 e
b111000 n
b1000 {
b111000 )
b1000 8
1!
#12200000
b1000 w
b1000 4
b111000 q
b111000 .
0!
#12300000
b111001 $
b111001 0
b111001 e
b111001 g
b111001 s
b111001 )
b1001 8
b111001 n
b1001 {
1!
#12400000
b1001 4
b1001 w
b111001 .
b111001 q
0!
#12500000
b111010 g
b111010 s
b111010 $
b111010 0
b111010 e
b111010 n
b1010 {
b111010 )
b1010 8
1!
#12600000
b1010 w
b1010 4
b111010 q
b111010 .
0!
#12700000
b111011 $
b111011 0
b111011 e
b111011 g
b111011 s
b111011 )
b1011 8
b111011 n
b1011 {
1!
#12800000
b1011 4
b1011 w
b111011 .
b111011 q
0!
#12900000
b111100 g
b111100 s
b111100 $
b111100 0
b111100 e
b111100 n
b1100 {
b111100 )
b1100 8
1!
#13000000
b1100 w
b1100 4
b111100 q
b111100 .
0!
#13100000
b111101 $
b111101 0
b111101 e
b111101 g
b111101 s
b111101 )
b1101 8
b111101 n
b1101 {
1!
#13200000
b1101 4
b1101 w
b111101 .
b111101 q
0!
#13300000
b111110 g
b111110 s
b111110 $
b111110 0
b111110 e
b111110 n
b1110 {
b111110 )
b1110 8
1!
#13400000
b1110 w
b1110 4
b111110 q
b111110 .
0!
#13500000
b1 1
b111111 $
b111111 0
b111111 e
b1 t
b111111 g
b111111 s
b111111 )
b1111 8
b1 +
19
b111111 n
b1111 {
b1 p
1|
1!
#13600000
b0 1
b0 t
b0 +
09
b0 p
0|
b0 =
b1111 4
b0 ""
b1111 w
b0 ;
b111111 .
b0 ~
b111111 q
0!
#13700000
b11111100 h
b11111100 r
b1000000 g
b1000000 s
b11111100 &
b11111100 /
b11111100 d
b1000000 $
b1000000 0
b1000000 e
b0 {
b11111100 o
0!"
b1000000 n
b100 #"
b0 8
b11111100 *
0<
b1000000 )
b100 >
1!
#13800000
b11 ""
b0 w
b100 }
b11 =
b0 4
b100 :
b11 ~
b1000000 q
b11 ;
b1000000 .
0!
#13900000
b11111110 &
b11111110 /
b11111110 d
b1000001 $
b1000001 0
b1000001 e
b11111110 h
b11111110 r
b1000001 g
b1000001 s
b11111110 *
1<
b1000001 )
b1 8
b11111110 o
1!"
b1000001 n
b1 {
1!
#14000000
b1 4
b1 w
b1000001 .
b1000001 q
0!
#14100000
b1000010 g
b1000010 s
b1000010 $
b1000010 0
b1000010 e
b1000010 n
b10 {
b1000010 )
b10 8
1!
#14200000
b10 w
b10 4
b1000010 q
b1000010 .
0!
#14300000
b1000011 $
b1000011 0
b1000011 e
b1000011 g
b1000011 s
b1000011 )
b11 8
b1000011 n
b11 {
1!
#14400000
b11 4
b11 w
b1000011 .
b1000011 q
0!
#14500000
b1000100 g
b1000100 s
b1000100 $
b1000100 0
b1000100 e
b1000100 n
b100 {
b1000100 )
b100 8
1!
#14600000
b100 w
b100 4
b1000100 q
b1000100 .
0!
#14700000
b1000101 $
b1000101 0
b1000101 e
b1000101 g
b1000101 s
b1000101 )
b101 8
b1000101 n
b101 {
1!
#14800000
b101 4
b101 w
b1000101 .
b1000101 q
0!
#14900000
b1000110 g
b1000110 s
b1000110 $
b1000110 0
b1000110 e
b1000110 n
b110 {
b1000110 )
b110 8
1!
#15000000
b110 w
b110 4
b1000110 q
b1000110 .
0!
#15100000
b1000111 $
b1000111 0
b1000111 e
b1000111 g
b1000111 s
b1000111 )
b111 8
b1000111 n
b111 {
1!
#15200000
b111 4
b111 w
b1000111 .
b1000111 q
0!
#15300000
b1001000 g
b1001000 s
b1001000 $
b1001000 0
b1001000 e
b1001000 n
b1000 {
b1001000 )
b1000 8
1!
#15400000
b1000 w
b1000 4
b1001000 q
b1001000 .
0!
#15500000
b1001001 $
b1001001 0
b1001001 e
b1001001 g
b1001001 s
b1001001 )
b1001 8
b1001001 n
b1001 {
1!
#15600000
b1001 4
b1001 w
b1001001 .
b1001001 q
0!
#15700000
b1001010 g
b1001010 s
b1001010 $
b1001010 0
b1001010 e
b1001010 n
b1010 {
b1001010 )
b1010 8
1!
#15800000
b1010 w
b1010 4
b1001010 q
b1001010 .
0!
#15900000
b1001011 $
b1001011 0
b1001011 e
b1001011 g
b1001011 s
b1001011 )
b1011 8
b1001011 n
b1011 {
1!
#16000000
b1011 4
b1011 w
b1001011 .
b1001011 q
0!
#16100000
b1001100 g
b1001100 s
b1001100 $
b1001100 0
b1001100 e
b1001100 n
b1100 {
b1001100 )
b1100 8
1!
#16200000
b1100 w
b1100 4
b1001100 q
b1001100 .
0!
#16300000
b1001101 $
b1001101 0
b1001101 e
b1001101 g
b1001101 s
b1001101 )
b1101 8
b1001101 n
b1101 {
1!
#16400000
b1101 4
b1101 w
b1001101 .
b1001101 q
0!
#16500000
b1001110 g
b1001110 s
b1001110 $
b1001110 0
b1001110 e
b1001110 n
b1110 {
b1001110 )
b1110 8
1!
#16600000
b1110 w
b1110 4
b1001110 q
b1001110 .
0!
#16700000
b1 1
b1001111 $
b1001111 0
b1001111 e
b1 t
b1001111 g
b1001111 s
b1001111 )
b1111 8
b1 +
19
b1001111 n
b1111 {
b1 p
1|
1!
#16800000
b0 1
b0 t
b0 +
09
b0 p
0|
b0 =
b1111 4
b0 ""
b1111 w
b0 ;
b1001111 .
b0 ~
b1001111 q
0!
#16900000
b11111100 h
b11111100 r
b1010000 g
b1010000 s
b11111100 &
b11111100 /
b11111100 d
b1010000 $
b1010000 0
b1010000 e
b0 {
b11111100 o
0!"
b1010000 n
b101 #"
b0 8
b11111100 *
0<
b1010000 )
b101 >
1!
#17000000
b11 ""
b0 w
b101 }
b11 =
b0 4
b101 :
b11 ~
b1010000 q
b11 ;
b1010000 .
0!
#17100000
b11111110 &
b11111110 /
b11111110 d
b1010001 $
b1010001 0
b1010001 e
b11111110 h
b11111110 r
b1010001 g
b1010001 s
b11111110 *
1<
b1010001 )
b1 8
b11111110 o
1!"
b1010001 n
b1 {
1!
#17200000
b1 4
b1 w
b1010001 .
b1010001 q
0!
#17300000
b1010010 g
b1010010 s
b1010010 $
b1010010 0
b1010010 e
b1010010 n
b10 {
b1010010 )
b10 8
1!
#17400000
b10 w
b10 4
b1010010 q
b1010010 .
0!
#17500000
b1010011 $
b1010011 0
b1010011 e
b1010011 g
b1010011 s
b1010011 )
b11 8
b1010011 n
b11 {
1!
#17600000
b11 4
b11 w
b1010011 .
b1010011 q
0!
#17700000
b1010100 g
b1010100 s
b1010100 $
b1010100 0
b1010100 e
b1010100 n
b100 {
b1010100 )
b100 8
1!
#17800000
b100 w
b100 4
b1010100 q
b1010100 .
0!
#17900000
b1010101 $
b1010101 0
b1010101 e
b1010101 g
b1010101 s
b1010101 )
b101 8
b1010101 n
b101 {
1!
#18000000
b101 4
b101 w
b1010101 .
b1010101 q
0!
