test.vcd
$date
	Sat Dec  5 20:03:03 2020
$end
$version
	Icarus Verilog
$end
$timescale
	1ps
$end
$scope module tb_top $end
$var wire 1 ! clock $end
$var wire 1 " RESET $end
$var wire 1 # RCO $end
$var wire 32 $ Q [31:0] $end
$var wire 2 % MODO [1:0] $end
$var wire 8 & LOAD [7:0] $end
$var wire 1 ' ENABLE $end
$var wire 32 ( D [31:0] $end
$scope module Behav $end
$var wire 32 ) wQ [31:0] $end
$var wire 8 * wLOAD [7:0] $end
$var wire 1 ! clk $end
$var wire 8 + WnRCO [7:0] $end
$var wire 1 " RESET $end
$var wire 2 , MODO [1:0] $end
$var wire 1 ' ENABLE $end
$var wire 32 - D [31:0] $end
$var reg 32 . D_reg [31:0] $end
$var reg 8 / LOAD [7:0] $end
$var reg 32 0 Q [31:0] $end
$var reg 1 # RCO $end
$var reg 8 1 nRCO [7:0] $end
$var integer 32 2 x [31:0] $end
$var integer 32 3 y [31:0] $end
$scope module cont4b_0 $end
$var wire 4 4 D [3:0] $end
$var wire 1 ! clk $end
$var wire 1 " RESET $end
$var wire 2 5 MODO [1:0] $end
$var wire 1 ' ENABLE $end
$var reg 1 6 LOAD $end
$var reg 2 7 MODO_reg [1:0] $end
$var reg 4 8 Q [3:0] $end
$var reg 1 9 RCO $end
$upscope $end
$scope module cont4b_1 $end
$var wire 4 : D [3:0] $end
$var wire 2 ; MODO [1:0] $end
$var wire 1 ! clk $end
$var wire 1 " RESET $end
$var wire 1 ' ENABLE $end
$var reg 1 < LOAD $end
$var reg 2 = MODO_reg [1:0] $end
$var reg 4 > Q [3:0] $end
$var reg 1 ? RCO $end
$upscope $end
$scope module cont4b_2 $end
$var wire 4 @ D [3:0] $end
$var wire 2 A MODO [1:0] $end
$var wire 1 ! clk $end
$var wire 1 " RESET $end
$var wire 1 ' ENABLE $end
$var reg 1 B LOAD $end
$var reg 2 C MODO_reg [1:0] $end
$var reg 4 D Q [3:0] $end
$var reg 1 E RCO $end
$upscope $end
$scope module cont4b_3 $end
$var wire 4 F D [3:0] $end
$var wire 2 G MODO [1:0] $end
$var wire 1 ! clk $end
$var wire 1 " RESET $end
$var wire 1 ' ENABLE $end
$var reg 1 H LOAD $end
$var reg 2 I MODO_reg [1:0] $end
$var reg 4 J Q [3:0] $end
$var reg 1 K RCO $end
$upscope $end
$scope module cont4b_4 $end
$var wire 4 L D [3:0] $end
$var wire 2 M MODO [1:0] $end
$var wire 1 ! clk $end
$var wire 1 " RESET $end
$var wire 1 ' ENABLE $end
$var reg 1 N LOAD $end
$var reg 2 O MODO_reg [1:0] $end
$var reg 4 P Q [3:0] $end
$var reg 1 Q RCO $end
$upscope $end
$scope module cont4b_5 $end
$var wire 4 R D [3:0] $end
$var wire 2 S MODO [1:0] $end
$var wire 1 ! clk $end
$var wire 1 " RESET $end
$var wire 1 ' ENABLE $end
$var reg 1 T LOAD $end
$var reg 2 U MODO_reg [1:0] $end
$var reg 4 V Q [3:0] $end
$var reg 1 W RCO $end
$upscope $end
$scope module cont4b_6 $end
$var wire 4 X D [3:0] $end
$var wire 2 Y MODO [1:0] $end
$var wire 1 ! clk $end
$var wire 1 " RESET $end
$var wire 1 ' ENABLE $end
$var reg 1 Z LOAD $end
$var reg 2 [ MODO_reg [1:0] $end
$var reg 4 \ Q [3:0] $end
$var reg 1 ] RCO $end
$upscope $end
$scope module cont4b_7 $end
$var wire 4 ^ D [3:0] $end
$var wire 2 _ MODO [1:0] $end
$var wire 1 ! clk $end
$var wire 1 " RESET $end
$var wire 1 ' ENABLE $end
$var reg 1 ` LOAD $end
$var reg 2 a MODO_reg [1:0] $end
$var reg 4 b Q [3:0] $end
$var reg 1 c RCO $end
$upscope $end
$upscope $end
$scope module clock $end
$var reg 1 ! clock $end
$upscope $end
$scope module tb $end
$var wire 8 d LOAD [7:0] $end
$var wire 32 e Q [31:0] $end
$var wire 1 # RCO $end
$var wire 1 ! clk $end
$var wire 1 f wRCO $end
$var wire 32 g wQ [31:0] $end
$var wire 8 h wLOAD [7:0] $end
$var reg 32 i D [31:0] $end
$var reg 1 ' ENABLE $end
$var reg 2 j MODO [1:0] $end
$var reg 1 " RESET $end
$var integer 32 k log [31:0] $end
$scope module count_TB $end
$var wire 32 l D [31:0] $end
$var wire 1 ' ENABLE $end
$var wire 2 m MODO [1:0] $end
$var wire 1 " RESET $end
$var wire 1 ! clk $end
$var wire 32 n wQ [31:0] $end
$var wire 8 o wLOAD [7:0] $end
$var wire 8 p WnRCO [7:0] $end
$var reg 32 q D_reg [31:0] $end
$var reg 8 r LOAD [7:0] $end
$var reg 32 s Q [31:0] $end
$var reg 1 f RCO $end
$var reg 8 t nRCO [7:0] $end
$var integer 32 u x [31:0] $end
$var integer 32 v y [31:0] $end
$scope module cont4b_0 $end
$var wire 4 w D [3:0] $end
$var wire 1 ' ENABLE $end
$var wire 2 x MODO [1:0] $end
$var wire 1 " RESET $end
$var wire 1 ! clk $end
$var reg 1 y LOAD $end
$var reg 2 z MODO_reg [1:0] $end
$var reg 4 { Q [3:0] $end
$var reg 1 | RCO $end
$upscope $end
$scope module cont4b_1 $end
$var wire 4 } D [3:0] $end
$var wire 1 ' ENABLE $end
$var wire 2 ~ MODO [1:0] $end
$var wire 1 " RESET $end
$var wire 1 ! clk $end
$var reg 1 !" LOAD $end
$var reg 2 "" MODO_reg [1:0] $end
$var reg 4 #" Q [3:0] $end
$var reg 1 $" RCO $end
$upscope $end
$scope module cont4b_2 $end
$var wire 4 %" D [3:0] $end
$var wire 1 ' ENABLE $end
$var wire 2 &" MODO [1:0] $end
$var wire 1 " RESET $end
$var wire 1 ! clk $end
$var reg 1 '" LOAD $end
$var reg 2 (" MODO_reg [1:0] $end
$var reg 4 )" Q [3:0] $end
$var reg 1 *" RCO $end
$upscope $end
$scope module cont4b_3 $end
$var wire 4 +" D [3:0] $end
$var wire 1 ' ENABLE $end
$var wire 2 ," MODO [1:0] $end
$var wire 1 " RESET $end
$var wire 1 ! clk $end
$var reg 1 -" LOAD $end
$var reg 2 ." MODO_reg [1:0] $end
$var reg 4 /" Q [3:0] $end
$var reg 1 0" RCO $end
$upscope $end
$scope module cont4b_4 $end
$var wire 4 1" D [3:0] $end
$var wire 1 ' ENABLE $end
$var wire 2 2" MODO [1:0] $end
$var wire 1 " RESET $end
$var wire 1 ! clk $end
$var reg 1 3" LOAD $end
$var reg 2 4" MODO_reg [1:0] $end
$var reg 4 5" Q [3:0] $end
$var reg 1 6" RCO $end
$upscope $end
$scope module cont4b_5 $end
$var wire 4 7" D [3:0] $end
$var wire 1 ' ENABLE $end
$var wire 2 8" MODO [1:0] $end
$var wire 1 " RESET $end
$var wire 1 ! clk $end
$var reg 1 9" LOAD $end
$var reg 2 :" MODO_reg [1:0] $end
$var reg 4 ;" Q [3:0] $end
$var reg 1 <" RCO $end
$upscope $end
$scope module cont4b_6 $end
$var wire 4 =" D [3:0] $end
$var wire 1 ' ENABLE $end
$var wire 2 >" MODO [1:0] $end
$var wire 1 " RESET $end
$var wire 1 ! clk $end
$var reg 1 ?" LOAD $end
$var reg 2 @" MODO_reg [1:0] $end
$var reg 4 A" Q [3:0] $end
$var reg 1 B" RCO $end
$upscope $end
$scope module cont4b_7 $end
$var wire 4 C" D [3:0] $end
$var wire 1 ' ENABLE $end
$var wire 2 D" MODO [1:0] $end
$var wire 1 " RESET $end
$var wire 1 ! clk $end
$var reg 1 E" LOAD $end
$var reg 2 F" MODO_reg [1:0] $end
$var reg 4 G" Q [3:0] $end
$var reg 1 H" RCO $end
$upscope $end
$upscope $end
$scope task drv_MODO00_request $end
$var integer 32 I" iteration [31:0] $end
$upscope $end
$scope task drv_MODO01_request $end
$var integer 32 J" iteration [31:0] $end
$upscope $end
$scope task drv_MODO10_request $end
$var integer 32 K" iteration [31:0] $end
$upscope $end
$scope task drv_MODO_request $end
$var integer 32 L" iteration [31:0] $end
$upscope $end
$scope task drv_RESET2_request $end
$var integer 32 M" iteration [31:0] $end
$upscope $end
$scope task drv_RESET_request $end
$var integer 32 N" iteration [31:0] $end
$upscope $end
$scope task drv_init $end
$upscope $end
$scope task drv_random_request $end
$var integer 32 O" iteration [31:0] $end
$upscope $end
$upscope $end
$upscope $end
$enddefinitions $end
#0
$dumpvars
bx O"
bx N"
bx M"
bx L"
bx K"
bx J"
bx I"
xH"
bx G"
bx F"
xE"
bx D"
bx C"
xB"
bx A"
bx @"
x?"
bx >"
bx ="
x<"
bx ;"
bx :"
x9"
bx 8"
bx 7"
x6"
bx 5"
bx 4"
x3"
bx 2"
bx 1"
x0"
bx /"
bx ."
x-"
bx ,"
bx +"
x*"
bx )"
bx ("
x'"
bx &"
bx %"
x$"
bx #"
bx ""
x!"
bx ~
bx }
x|
bx {
bx z
xy
bx x
bx w
bx v
bx u
bx t
bx s
bx r
bx q
bx p
bx o
bx n
bx m
bx l
b10 k
bx j
bx i
bx h
bx g
xf
bx e
bx d
xc
bx b
bx a
x`
bx _
bx ^
x]
bx \
bx [
xZ
bx Y
bx X
xW
bx V
bx U
xT
bx S
bx R
xQ
bx P
bx O
xN
bx M
bx L
xK
bx J
bx I
xH
bx G
bx F
xE
bx D
bx C
xB
bx A
bx @
x?
bx >
bx =
x<
bx ;
bx :
x9
bx 8
bx 7
x6
bx 5
bx 4
bx 3
bx 2
bx 1
bx 0
bx /
bx .
bx -
bx ,
bx +
bx *
bx )
bx (
0'
bx &
bx %
bx $
x#
x"
0!
$end
#100000
b0 t
b0 h
b0 r
b0 g
b0 s
b0 1
b0 &
b0 /
b0 d
b0 $
b0 0
b0 e
0y
0|
b0 {
0!"
0$"
b0 #"
0'"
0*"
b0 )"
0-"
00"
b0 /"
03"
06"
b0 5"
09"
0<"
b0 ;"
0?"
0B"
b0 A"
b0 o
0E"
b0 p
0H"
b0 n
b0 G"
06
09
b0 8
0<
0?
b0 >
0B
0E
b0 D
0H
0K
b0 J
0N
0Q
b0 P
0T
0W
b0 V
0Z
0]
b0 \
b0 *
0`
b0 +
0c
b0 )
b0 b
b11 F"
b11 @"
b11 :"
b11 4"
b11 ."
b11 ("
b11 ""
b11 a
b11 [
b11 U
b11 O
b11 I
b11 C
b11 =
b11 D"
b11 >"
b11 8"
b11 2"
b11 ,"
b11 &"
b11 ~
b11 _
b11 Y
b11 S
b11 M
b11 G
b11 A
b11 ;
1!
#200000
1"
0!
#300000
b0 4
b0 :
b0 @
b0 F
b0 L
b0 R
b0 X
b0 ^
b0 w
b0 }
b0 %"
b0 +"
b0 1"
b0 7"
b0 ="
b0 C"
b0 .
b0 q
b1000 3
b1000 2
b1000 v
b1000 u
1!
#400000
0"
0!
#500000
1!
#600000
0!
#700000
1!
#800000
b0 (
b0 -
b0 i
b0 l
1'
b11 7
b11 z
b11 %
b11 ,
b11 5
b11 j
b11 m
b11 x
b10011100010000 L"
0!
#900000
b11111111 h
b11111111 r
0f
b11111111 &
b11111111 /
b11111111 d
0#
1y
1!"
1'"
1-"
13"
19"
1?"
b11111111 o
1E"
16
1<
1B
1H
1N
1T
1Z
b11111111 *
1`
1!
#1000000
b0 z
b0 7
b0 %
b0 ,
b0 5
b0 j
b0 m
b0 x
0!
#1100000
b11111110 &
b11111110 /
b11111110 d
b1 $
b1 0
b1 e
b11111110 h
b11111110 r
b1 g
b1 s
b11111110 *
06
b1 )
b1 8
b11111110 o
0y
b1 n
b1 {
1!
#1200000
0!
#1300000
b10 g
b10 s
b1 w
b10 $
b10 0
b10 e
b1 4
b10 n
b10 {
b1 q
b10 )
b10 8
b1 .
1!
#1400000
0!
#1500000
b10 4
b11 $
b11 0
b11 e
b10 w
b11 g
b11 s
b10 .
b11 )
b11 8
b10 q
b11 n
b11 {
1!
#1600000
0!
#1700000
b100 g
b100 s
b11 w
b100 $
b100 0
b100 e
b11 4
b100 n
b100 {
b11 q
b100 )
b100 8
b11 .
1!
#1800000
0!
#1900000
b100 4
b101 $
b101 0
b101 e
b100 w
b101 g
b101 s
b100 .
b101 )
b101 8
b100 q
b101 n
b101 {
1!
#2000000
0!
#2100000
b110 g
b110 s
b101 w
b110 $
b110 0
b110 e
b101 4
b110 n
b110 {
b101 q
b110 )
b110 8
b101 .
1!
#2200000
0!
#2300000
b110 4
b111 $
b111 0
b111 e
b110 w
b111 g
b111 s
b110 .
b111 )
b111 8
b110 q
b111 n
b111 {
1!
#2400000
0!
#2500000
b1000 g
b1000 s
b111 w
b1000 $
b1000 0
b1000 e
b111 4
b1000 n
b1000 {
b111 q
b1000 )
b1000 8
b111 .
1!
#2600000
0!
#2700000
b1000 4
b1001 $
b1001 0
b1001 e
b1000 w
b1001 g
b1001 s
b1000 .
b1001 )
b1001 8
b1000 q
b1001 n
b1001 {
1!
#2800000
0!
#2900000
b1010 g
b1010 s
b1001 w
b1010 $
b1010 0
b1010 e
b1001 4
b1010 n
b1010 {
b1001 q
b1010 )
b1010 8
b1001 .
1!
#3000000
0!
#3100000
b1010 4
b1011 $
b1011 0
b1011 e
b1010 w
b1011 g
b1011 s
b1010 .
b1011 )
b1011 8
b1010 q
b1011 n
b1011 {
1!
#3200000
0!
#3300000
b1100 g
b1100 s
b1011 w
b1100 $
b1100 0
b1100 e
b1011 4
b1100 n
b1100 {
b1011 q
b1100 )
b1100 8
b1011 .
1!
#3400000
0!
#3500000
b1100 4
b1101 $
b1101 0
b1101 e
b1100 w
b1101 g
b1101 s
b1100 .
b1101 )
b1101 8
b1100 q
b1101 n
b1101 {
1!
#3600000
0!
#3700000
b1110 g
b1110 s
b1101 w
b1110 $
b1110 0
b1110 e
b1101 4
b1110 n
b1110 {
b1101 q
b1110 )
b1110 8
b1101 .
1!
#3800000
0!
#3900000
b1110 4
b1111 $
b1111 0
b1111 e
b1110 w
b1111 g
b1111 s
b1110 .
b1111 )
b1111 8
b1110 q
b1111 n
b1111 {
1!
#4000000
0!
#4100000
b1 t
b0 g
b0 s
b1111 w
b1 1
b0 $
b0 0
b0 e
b1111 4
b0 n
b0 {
b1 p
1|
b1111 q
b0 )
b0 8
b1 +
19
b1111 .
1!
#4200000
0!
#4300000
b0 4
b0 1
b1 $
b1 0
b1 e
b0 w
b0 t
b1 g
b1 s
b0 .
b0 +
09
b1 )
b1 8
b0 q
b0 p
0|
b1 n
b1 {
b0 =
b0 ""
b0 ;
b0 ~
1!
#4400000
0!
#4500000
b10 g
b10 s
b1 w
b10 $
b10 0
b10 e
b1 4
b10 n
b10 {
b1 q
b10 )
b10 8
b1 .
b11 ""
b11 =
b11 ~
b11 ;
1!
#4600000
0!
#4700000
b10 4
b11 $
b11 0
b11 e
b10 w
b11 g
b11 s
b10 .
b11 )
b11 8
b10 q
b11 n
b11 {
1!
#4800000
0!
#4900000
b100 g
b100 s
b11 w
b100 $
b100 0
b100 e
b11 4
b100 n
b100 {
b11 q
b100 )
b100 8
b11 .
1!
#5000000
0!
#5100000
b100 4
b101 $
b101 0
b101 e
b100 w
b101 g
b101 s
b100 .
b101 )
b101 8
b100 q
b101 n
b101 {
1!
#5200000
0!
#5300000
b110 g
b110 s
b101 w
b110 $
b110 0
b110 e
b101 4
b110 n
b110 {
b101 q
b110 )
b110 8
b101 .
1!
#5400000
0!
#5500000
b110 4
b111 $
b111 0
b111 e
b110 w
b111 g
b111 s
b110 .
b111 )
b111 8
b110 q
b111 n
b111 {
1!
#5600000
0!
#5700000
b1000 g
b1000 s
b111 w
b1000 $
b1000 0
b1000 e
b111 4
b1000 n
b1000 {
b111 q
b1000 )
b1000 8
b111 .
1!
#5800000
0!
#5900000
b1000 4
b1001 $
b1001 0
b1001 e
b1000 w
b1001 g
b1001 s
b1000 .
b1001 )
b1001 8
b1000 q
b1001 n
b1001 {
1!
#6000000
0!
#6100000
b1010 g
b1010 s
b1001 w
b1010 $
b1010 0
b1010 e
b1001 4
b1010 n
b1010 {
b1001 q
b1010 )
b1010 8
b1001 .
1!
#6200000
0!
#6300000
b1010 4
b1011 $
b1011 0
b1011 e
b1010 w
b1011 g
b1011 s
b1010 .
b1011 )
b1011 8
b1010 q
b1011 n
b1011 {
1!
#6400000
0!
#6500000
b1100 g
b1100 s
b1011 w
b1100 $
b1100 0
b1100 e
b1011 4
b1100 n
b1100 {
b1011 q
b1100 )
b1100 8
b1011 .
1!
#6600000
0!
#6700000
b1100 4
b1101 $
b1101 0
b1101 e
b1100 w
b1101 g
b1101 s
b1100 .
b1101 )
b1101 8
b1100 q
b1101 n
b1101 {
1!
#6800000
0!
#6900000
b1110 g
b1110 s
b1101 w
b1110 $
b1110 0
b1110 e
b1101 4
b1110 n
b1110 {
b1101 q
b1110 )
b1110 8
b1101 .
1!
#7000000
0!
#7100000
b1110 4
b1111 $
b1111 0
b1111 e
b1110 w
b1111 g
b1111 s
b1110 .
b1111 )
b1111 8
b1110 q
b1111 n
b1111 {
1!
#7200000
0!
#7300000
b1 t
b0 g
b0 s
b1111 w
b1 1
b0 $
b0 0
b0 e
b1111 4
b0 n
b0 {
b1 p
1|
b1111 q
b0 )
b0 8
b1 +
19
b1111 .
1!
#7400000
0!
#7500000
b0 4
b0 1
b1 $
b1 0
b1 e
b0 w
b0 t
b1 g
b1 s
b0 .
b0 +
09
b1 )
b1 8
b0 q
b0 p
0|
b1 n
b1 {
b0 =
b0 ""
b0 ;
b0 ~
1!
#7600000
0!
#7700000
b10 g
b10 s
b1 w
b10 $
b10 0
b10 e
b1 4
b10 n
b10 {
b1 q
b10 )
b10 8
b1 .
b11 ""
b11 =
b11 ~
b11 ;
1!
#7800000
0!
#7900000
b10 4
b11 $
b11 0
b11 e
b10 w
b11 g
b11 s
b10 .
b11 )
b11 8
b10 q
b11 n
b11 {
1!
#8000000
0!
#8100000
b100 g
b100 s
b11 w
b100 $
b100 0
b100 e
b11 4
b100 n
b100 {
b11 q
b100 )
b100 8
b11 .
1!
#8200000
0!
#8300000
b100 4
b101 $
b101 0
b101 e
b100 w
b101 g
b101 s
b100 .
b101 )
b101 8
b100 q
b101 n
b101 {
1!
#8400000
0!
#8500000
b110 g
b110 s
b101 w
b110 $
b110 0
b110 e
b101 4
b110 n
b110 {
b101 q
b110 )
b110 8
b101 .
1!
#8600000
0!
#8700000
b110 4
b111 $
b111 0
b111 e
b110 w
b111 g
b111 s
b110 .
b111 )
b111 8
b110 q
b111 n
b111 {
1!
#8800000
0!
#8900000
b1000 g
b1000 s
b111 w
b1000 $
b1000 0
b1000 e
b111 4
b1000 n
b1000 {
b111 q
b1000 )
b1000 8
b111 .
1!
#9000000
0!
#9100000
b1000 4
b1001 $
b1001 0
b1001 e
b1000 w
b1001 g
b1001 s
b1000 .
b1001 )
b1001 8
b1000 q
b1001 n
b1001 {
1!
#9200000
0!
#9300000
b1010 g
b1010 s
b1001 w
b1010 $
b1010 0
b1010 e
b1001 4
b1010 n
b1010 {
b1001 q
b1010 )
b1010 8
b1001 .
1!
#9400000
0!
#9500000
b1010 4
b1011 $
b1011 0
b1011 e
b1010 w
b1011 g
b1011 s
b1010 .
b1011 )
b1011 8
b1010 q
b1011 n
b1011 {
1!
#9600000
0!
#9700000
b1100 g
b1100 s
b1011 w
b1100 $
b1100 0
b1100 e
b1011 4
b1100 n
b1100 {
b1011 q
b1100 )
b1100 8
b1011 .
1!
#9800000
0!
#9900000
b1100 4
b1101 $
b1101 0
b1101 e
b1100 w
b1101 g
b1101 s
b1100 .
b1101 )
b1101 8
b1100 q
b1101 n
b1101 {
1!
#10000000
0!
#10100000
b1110 g
b1110 s
b1101 w
b1110 $
b1110 0
b1110 e
b1101 4
b1110 n
b1110 {
b1101 q
b1110 )
b1110 8
b1101 .
1!
#10200000
0!
#10300000
b1110 4
b1111 $
b1111 0
b1111 e
b1110 w
b1111 g
b1111 s
b1110 .
b1111 )
b1111 8
b1110 q
b1111 n
b1111 {
1!
#10400000
0!
#10500000
b1 t
b0 g
b0 s
b1111 w
b1 1
b0 $
b0 0
b0 e
b1111 4
b0 n
b0 {
b1 p
1|
b1111 q
b0 )
b0 8
b1 +
19
b1111 .
1!
#10600000
0!
#10700000
b0 4
b0 1
b1 $
b1 0
b1 e
b0 w
b0 t
b1 g
b1 s
b0 .
b0 +
09
b1 )
b1 8
b0 q
b0 p
0|
b1 n
b1 {
b0 =
b0 ""
b0 ;
b0 ~
1!
#10800000
0!
#10900000
b10 g
b10 s
b1 w
b10 $
b10 0
b10 e
b1 4
b10 n
b10 {
b1 q
b10 )
b10 8
b1 .
b11 ""
b11 =
b11 ~
b11 ;
1!
#11000000
0!
#11100000
b10 4
b11 $
b11 0
b11 e
b10 w
b11 g
b11 s
b10 .
b11 )
b11 8
b10 q
b11 n
b11 {
1!
#11200000
0!
#11300000
b100 g
b100 s
b11 w
b100 $
b100 0
b100 e
b11 4
b100 n
b100 {
b11 q
b100 )
b100 8
b11 .
1!
#11400000
0!
#11500000
b100 4
b101 $
b101 0
b101 e
b100 w
b101 g
b101 s
b100 .
b101 )
b101 8
b100 q
b101 n
b101 {
1!
#11600000
0!
#11700000
b110 g
b110 s
b101 w
b110 $
b110 0
b110 e
b101 4
b110 n
b110 {
b101 q
b110 )
b110 8
b101 .
1!
#11800000
0!
#11900000
b110 4
b111 $
b111 0
b111 e
b110 w
b111 g
b111 s
b110 .
b111 )
b111 8
b110 q
b111 n
b111 {
1!
#12000000
0!
#12100000
b1000 g
b1000 s
b111 w
b1000 $
b1000 0
b1000 e
b111 4
b1000 n
b1000 {
b111 q
b1000 )
b1000 8
b111 .
1!
#12200000
0!
#12300000
b1000 4
b1001 $
b1001 0
b1001 e
b1000 w
b1001 g
b1001 s
b1000 .
b1001 )
b1001 8
b1000 q
b1001 n
b1001 {
1!
#12400000
0!
#12500000
b1010 g
b1010 s
b1001 w
b1010 $
b1010 0
b1010 e
b1001 4
b1010 n
b1010 {
b1001 q
b1010 )
b1010 8
b1001 .
1!
#12600000
0!
#12700000
b1010 4
b1011 $
b1011 0
b1011 e
b1010 w
b1011 g
b1011 s
b1010 .
b1011 )
b1011 8
b1010 q
b1011 n
b1011 {
1!
#12800000
0!
#12900000
b1100 g
b1100 s
b1011 w
b1100 $
b1100 0
b1100 e
b1011 4
b1100 n
b1100 {
b1011 q
b1100 )
b1100 8
b1011 .
1!
#13000000
0!
#13100000
b1100 4
b1101 $
b1101 0
b1101 e
b1100 w
b1101 g
b1101 s
b1100 .
b1101 )
b1101 8
b1100 q
b1101 n
b1101 {
1!
#13200000
0!
#13300000
b1110 g
b1110 s
b1101 w
b1110 $
b1110 0
b1110 e
b1101 4
b1110 n
b1110 {
b1101 q
b1110 )
b1110 8
b1101 .
1!
#13400000
0!
#13500000
b1110 4
b1111 $
b1111 0
b1111 e
b1110 w
b1111 g
b1111 s
b1110 .
b1111 )
b1111 8
b1110 q
b1111 n
b1111 {
1!
#13600000
0!
#13700000
b1 t
b0 g
b0 s
b1111 w
b1 1
b0 $
b0 0
b0 e
b1111 4
b0 n
b0 {
b1 p
1|
b1111 q
b0 )
b0 8
b1 +
19
b1111 .
1!
#13800000
0!
#13900000
b0 4
b0 1
b1 $
b1 0
b1 e
b0 w
b0 t
b1 g
b1 s
b0 .
b0 +
09
b1 )
b1 8
b0 q
b0 p
0|
b1 n
b1 {
b0 =
b0 ""
b0 ;
b0 ~
1!
#14000000
0!
#14100000
b10 g
b10 s
b1 w
b10 $
b10 0
b10 e
b1 4
b10 n
b10 {
b1 q
b10 )
b10 8
b1 .
b11 ""
b11 =
b11 ~
b11 ;
1!
#14200000
0!
#14300000
b10 4
b11 $
b11 0
b11 e
b10 w
b11 g
b11 s
b10 .
b11 )
b11 8
b10 q
b11 n
b11 {
1!
#14400000
0!
#14500000
b100 g
b100 s
b11 w
b100 $
b100 0
b100 e
b11 4
b100 n
b100 {
b11 q
b100 )
b100 8
b11 .
1!
#14600000
0!
#14700000
b100 4
b101 $
b101 0
b101 e
b100 w
b101 g
b101 s
b100 .
b101 )
b101 8
b100 q
b101 n
b101 {
1!
#14800000
0!
#14900000
b110 g
b110 s
b101 w
b110 $
b110 0
b110 e
b101 4
b110 n
b110 {
b101 q
b110 )
b110 8
b101 .
1!
#15000000
0!
#15100000
b110 4
b111 $
b111 0
b111 e
b110 w
b111 g
b111 s
b110 .
b111 )
b111 8
b110 q
b111 n
b111 {
1!
#15200000
0!
#15300000
b1000 g
b1000 s
b111 w
b1000 $
b1000 0
b1000 e
b111 4
b1000 n
b1000 {
b111 q
b1000 )
b1000 8
b111 .
1!
#15400000
0!
#15500000
b1000 4
b1001 $
b1001 0
b1001 e
b1000 w
b1001 g
b1001 s
b1000 .
b1001 )
b1001 8
b1000 q
b1001 n
b1001 {
1!
#15600000
0!
#15700000
b1010 g
b1010 s
b1001 w
b1010 $
b1010 0
b1010 e
b1001 4
b1010 n
b1010 {
b1001 q
b1010 )
b1010 8
b1001 .
1!
#15800000
0!
#15900000
b1010 4
b1011 $
b1011 0
b1011 e
b1010 w
b1011 g
b1011 s
b1010 .
b1011 )
b1011 8
b1010 q
b1011 n
b1011 {
1!
#16000000
0!
#16100000
b1100 g
b1100 s
b1011 w
b1100 $
b1100 0
b1100 e
b1011 4
b1100 n
b1100 {
b1011 q
b1100 )
b1100 8
b1011 .
1!
#16200000
0!
#16300000
b1100 4
b1101 $
b1101 0
b1101 e
b1100 w
b1101 g
b1101 s
b1100 .
b1101 )
b1101 8
b1100 q
b1101 n
b1101 {
1!
#16400000
0!
#16500000
b1110 g
b1110 s
b1101 w
b1110 $
b1110 0
b1110 e
b1101 4
b1110 n
b1110 {
b1101 q
b1110 )
b1110 8
b1101 .
1!
#16600000
0!
#16700000
b1110 4
b1111 $
b1111 0
b1111 e
b1110 w
b1111 g
b1111 s
b1110 .
b1111 )
b1111 8
b1110 q
b1111 n
b1111 {
1!
#16800000
0!
#16900000
b1 t
b0 g
b0 s
b1111 w
b1 1
b0 $
b0 0
b0 e
b1111 4
b0 n
b0 {
b1 p
1|
b1111 q
b0 )
b0 8
b1 +
19
b1111 .
1!
#17000000
0!
#17100000
b0 4
b0 1
b1 $
b1 0
b1 e
b0 w
b0 t
b1 g
b1 s
b0 .
b0 +
09
b1 )
b1 8
b0 q
b0 p
0|
b1 n
b1 {
b0 =
b0 ""
b0 ;
b0 ~
1!
#17200000
0!
#17300000
b10 g
b10 s
b1 w
b10 $
b10 0
b10 e
b1 4
b10 n
b10 {
b1 q
b10 )
b10 8
b1 .
b11 ""
b11 =
b11 ~
b11 ;
1!
#17400000
0!
#17500000
b10 4
b11 $
b11 0
b11 e
b10 w
b11 g
b11 s
b10 .
b11 )
b11 8
b10 q
b11 n
b11 {
1!
#17600000
0!
#17700000
b100 g
b100 s
b11 w
b100 $
b100 0
b100 e
b11 4
b100 n
b100 {
b11 q
b100 )
b100 8
b11 .
1!
#17800000
0!
#17900000
b100 4
b101 $
b101 0
b101 e
b100 w
b101 g
b101 s
b100 .
b101 )
b101 8
b100 q
b101 n
b101 {
1!
#18000000
0!
#18100000
b110 g
b110 s
b101 w
b110 $
b110 0
b110 e
b101 4
b110 n
b110 {
b101 q
b110 )
b110 8
b101 .
1!
#18200000
0!
#18300000
b110 4
b111 $
b111 0
b111 e
b110 w
b111 g
b111 s
b110 .
b111 )
b111 8
b110 q
b111 n
b111 {
1!
#18400000
0!
#18500000
b1000 g
b1000 s
b111 w
b1000 $
b1000 0
b1000 e
b111 4
b1000 n
b1000 {
b111 q
b1000 )
b1000 8
b111 .
1!
#18600000
0!
#18700000
b1000 4
b1001 $
b1001 0
b1001 e
b1000 w
b1001 g
b1001 s
b1000 .
b1001 )
b1001 8
b1000 q
b1001 n
b1001 {
1!
#18800000
0!
#18900000
b1010 g
b1010 s
b1001 w
b1010 $
b1010 0
b1010 e
b1001 4
b1010 n
b1010 {
b1001 q
b1010 )
b1010 8
b1001 .
1!
#19000000
0!
#19100000
b1010 4
b1011 $
b1011 0
b1011 e
b1010 w
b1011 g
b1011 s
b1010 .
b1011 )
b1011 8
b1010 q
b1011 n
b1011 {
1!
#19200000
0!
#19300000
b1100 g
b1100 s
b1011 w
b1100 $
b1100 0
b1100 e
b1011 4
b1100 n
b1100 {
b1011 q
b1100 )
b1100 8
b1011 .
1!
#19400000
0!
#19500000
b1100 4
b1101 $
b1101 0
b1101 e
b1100 w
b1101 g
b1101 s
b1100 .
b1101 )
b1101 8
b1100 q
b1101 n
b1101 {
1!
#19600000
0!
#19700000
b1110 g
b1110 s
b1101 w
b1110 $
b1110 0
b1110 e
b1101 4
b1110 n
b1110 {
b1101 q
b1110 )
b1110 8
b1101 .
1!
#19800000
0!
#19900000
b1110 4
b1111 $
b1111 0
b1111 e
b1110 w
b1111 g
b1111 s
b1110 .
b1111 )
b1111 8
b1110 q
b1111 n
b1111 {
1!
#20000000
0!
#20100000
b1 t
b0 g
b0 s
b1111 w
b1 1
b0 $
b0 0
b0 e
b1111 4
b0 n
b0 {
b1 p
1|
b1111 q
b0 )
b0 8
b1 +
19
b1111 .
1!
#20200000
0!
#20300000
b0 4
b0 1
b1 $
b1 0
b1 e
b0 w
b0 t
b1 g
b1 s
b0 .
b0 +
09
b1 )
b1 8
b0 q
b0 p
0|
b1 n
b1 {
b0 =
b0 ""
b0 ;
b0 ~
1!
#20400000
0!
#20500000
b10 g
b10 s
b1 w
b10 $
b10 0
b10 e
b1 4
b10 n
b10 {
b1 q
b10 )
b10 8
b1 .
b11 ""
b11 =
b11 ~
b11 ;
1!
#20600000
0!
#20700000
b10 4
b11 $
b11 0
b11 e
b10 w
b11 g
b11 s
b10 .
b11 )
b11 8
b10 q
b11 n
b11 {
1!
#20800000
0!
#20900000
b100 g
b100 s
b11 w
b100 $
b100 0
b100 e
b11 4
b100 n
b100 {
b11 q
b100 )
b100 8
b11 .
1!
#21000000
0!
